<?xml version="1.0" encoding="UTF-8"?>
<svg width="16px" height="22px" viewBox="0 0 16 22" version="1.1" xmlns="http://www.w3.org/2000/svg" xmlns:xlink="http://www.w3.org/1999/xlink">
    <!-- Generator: Sketch 64 (93537) - https://sketch.com -->
    <title>💰</title>
    <desc>Created with Sketch.</desc>
    <g id="Page-1" stroke="none" stroke-width="1" fill="none" fill-rule="evenodd" font-family="AppleColorEmoji, Apple Color Emoji" font-size="20" font-weight="normal">
        <g id="Продать---Бизнес-Pop-Up-" transform="translate(-759.000000, -804.000000)" fill="#FFFFFF">
            <g id="Pop-up" transform="translate(335.000000, 137.000000)">
                <g id="1">
                    <g id="Характеристики" transform="translate(133.000000, 473.000000)">
                        <g id="1-copy-8" transform="translate(264.000000, 153.000000)">
                            <text id="💰">
                                <tspan x="24" y="61">💰</tspan>
                            </text>
                        </g>
                    </g>
                </g>
            </g>
        </g>
    </g>
</svg>